Task 1/risc_v_tb.vcd
$date
	Sun Mar 23 19:44:05 2025
$end
$version
	Icarus Verilog
$end
$timescale
	1ps
$end
$scope module risc_v_tb $end
$var wire 32 ! CPUOut [31:0] $end
$var reg 1 " CLK $end
$var reg 32 # CPUIn [31:0] $end
$var reg 1 $ Reset $end
$scope module uut $end
$var wire 1 " CLK $end
$var wire 32 % CPUIn [31:0] $end
$var wire 32 & JalrTarget [31:0] $end
$var wire 1 $ Reset $end
$var wire 32 ' SrcA [31:0] $end
$var wire 32 ( WD [31:0] $end
$var wire 32 ) WD3 [31:0] $end
$var wire 1 * WE3 $end
$var wire 1 + WE_MEM $end
$var wire 1 , Zero $end
$var wire 1 - WE $end
$var wire 32 . SrcB [31:0] $end
$var wire 2 / ResultSrc [1:0] $end
$var wire 32 0 Result [31:0] $end
$var wire 32 1 RD2 [31:0] $end
$var wire 32 2 RD1 [31:0] $end
$var wire 32 3 RD [31:0] $end
$var wire 32 4 PCTarget [31:0] $end
$var wire 2 5 PCSrc [1:0] $end
$var wire 32 6 PCPlus4 [31:0] $end
$var wire 32 7 PCNext [31:0] $end
$var wire 32 8 PC [31:0] $end
$var wire 1 9 Negative $end
$var wire 1 : MemWrite $end
$var wire 32 ; JalTarget [31:0] $end
$var wire 32 < Instr [31:0] $end
$var wire 3 = ImmSrc [2:0] $end
$var wire 32 > ImmExt [31:0] $end
$var wire 32 ? CPUOut [31:0] $end
$var wire 32 @ BranchTarget [31:0] $end
$var wire 1 A ALUSrc $end
$var wire 32 B ALUResult [31:0] $end
$var wire 5 C ALUControl [4:0] $end
$var wire 5 D A3 [4:0] $end
$var wire 5 E A2 [4:0] $end
$var wire 5 F A1 [4:0] $end
$var wire 1 G A $end
$scope module ALU_module $end
$var wire 32 H A [31:0] $end
$var wire 32 I B [31:0] $end
$var wire 1 , Zero $end
$var wire 1 9 Negative $end
$var wire 5 J B_shift [4:0] $end
$var wire 5 K ALUControl [4:0] $end
$var reg 32 L ALUResult [31:0] $end
$upscope $end
$scope module CU_module $end
$var wire 1 9 Negative $end
$var wire 1 , Zero $end
$var wire 7 M opcode [6:0] $end
$var wire 7 N funct7 [6:0] $end
$var wire 3 O funct3 [2:0] $end
$var wire 32 P Instr [31:0] $end
$var reg 5 Q ALUControl [4:0] $end
$var reg 1 A ALUSrc $end
$var reg 3 R ImmSrc [2:0] $end
$var reg 1 : MemWrite $end
$var reg 2 S PCSrc [1:0] $end
$var reg 1 - RegWrite $end
$var reg 2 T ResultSrc [1:0] $end
$upscope $end
$scope module DM_module $end
$var wire 32 U A [31:0] $end
$var wire 1 " CLK $end
$var wire 32 V CPUIn [31:0] $end
$var wire 32 W WD [31:0] $end
$var wire 1 + WE $end
$var wire 1 X RDsel $end
$var wire 32 Y RD [31:0] $end
$var reg 32 Z CPUOut [31:0] $end
$var reg 1 [ WEM $end
$var reg 1 \ WEOut $end
$upscope $end
$scope module EXT_module $end
$var wire 3 ] ImmSrc [2:0] $end
$var wire 32 ^ Instr [31:0] $end
$var reg 32 _ ImmExt [31:0] $end
$upscope $end
$scope module IM_module $end
$var wire 32 ` Instr [31:0] $end
$var wire 32 a PC_divided_by_4 [31:0] $end
$var wire 32 b PC [31:0] $end
$upscope $end
$scope module PC_module $end
$var wire 32 c PCNext [31:0] $end
$var wire 1 " clk $end
$var wire 1 $ reset $end
$var reg 32 d PC [31:0] $end
$upscope $end
$scope module RF_module $end
$var wire 5 e A1 [4:0] $end
$var wire 5 f A2 [4:0] $end
$var wire 5 g A3 [4:0] $end
$var wire 1 " CLK $end
$var wire 32 h WD3 [31:0] $end
$var wire 1 * WE3 $end
$var wire 32 i RD2 [31:0] $end
$var wire 32 j RD1 [31:0] $end
$upscope $end
$upscope $end
$scope begin $ivl_for_loop0 $end
$var integer 32 k i [31:0] $end
$upscope $end
$upscope $end
$enddefinitions $end
#0
$dumpvars
b0 k
b0 j
b0 i
b10000000000000000000000000000000 h
b1010 g
b0 f
b0 e
b0 d
b100 c
b0 b
b0 a
b10000000000000000000010100110111 `
b10000000000000000000000000000000 _
b10000000000000000000010100110111 ^
b11 ]
0\
0[
bx Z
bx Y
0X
b0 W
b10000011 V
b0 U
b0 T
b0 S
b11 R
bx Q
b10000000000000000000010100110111 P
b0 O
b1000000 N
b110111 M
b0 L
bx K
b0 J
b0 I
b0 H
0G
b0 F
b0 E
b1010 D
bx C
b0 B
0A
b10000000000000000000000000000000 @
bx ?
b10000000000000000000000000000000 >
b11 =
b10000000000000000000010100110111 <
b10000000000000000000000000000000 ;
0:
09
b0 8
b100 7
b100 6
b0 5
bx 4
bx 3
b0 2
b0 1
b10000000000000000000000000000000 0
b0 /
b0 .
1-
1,
0+
1*
b10000000000000000000000000000000 )
b0 (
b0 '
b0 &
b10000011 %
1$
b10000011 #
0"
bx !
$end
#10000
1"
#20000
0"
#30000
1"
#40000
0"
#50000
1"
#60000
0"
#70000
1"
#80000
0"
#90000
1"
#100000
0"
#110000
b10000011 3
b10000011 Y
1X
b11100 J
0,
09
b11111111111111111111111111111100 .
b11111111111111111111111111111100 I
b1111111111111111111111111111100 &
b1111111111111111111111111111100 B
b1111111111111111111111111111100 L
b1111111111111111111111111111100 U
bx0x10 C
bx0x10 K
bx0x10 Q
b1 /
b1 T
1A
b0 =
b0 R
b0 ]
bx (
bx W
bx 1
bx i
b10000000000000000000000000000000 '
b10000000000000000000000000000000 H
b10000000000000000000000000000000 2
b10000000000000000000000000000000 j
b1111111111111111111111111111100 )
b1111111111111111111111111111100 h
b1111111111111111111111111111100 0
b1111111 N
b10011 M
b11100 E
b11100 f
b1010 F
b1010 e
b11111111111111111111111111111100 >
b11111111111111111111111111111100 _
b1000 7
b1000 c
b11111111110001010000010100010011 <
b11111111110001010000010100010011 P
b11111111110001010000010100010011 ^
b11111111110001010000010100010011 `
b1 a
b1000 6
b0 ;
b0 @
b100 8
b100 b
b100 d
1"
0$
#120000
0"
#130000
b10000011 )
b10000011 h
b10000011 0
b0 J
b10 /
b10 T
b0 (
b0 W
b0 1
b0 i
b0 .
b0 I
b1111111111111111111111111111100 '
b1111111111111111111111111111100 H
b1111111111111111111111111111100 2
b1111111111111111111111111111100 j
b0 N
b10 O
b11 M
b1 D
b1 g
b0 E
b0 f
b0 >
b0 _
b1100 7
b1100 c
b1010010000010000011 <
b1010010000010000011 P
b1010010000010000011 ^
b1010010000010000011 `
b10 a
b1100 6
b1000 ;
b1000 @
b1000 8
b1000 b
b1000 d
1"
b1 k
#140000
0"
#150000
bx 3
bx Y
0X
b0 )
b0 h
b0 0
1,
b0 &
b0 B
b0 L
b0 U
b1 /
b1 T
b0 '
b0 H
b0 2
b0 j
b0 O
b10011 M
b10 D
b10 g
b0 F
b0 e
b10000 7
b10000 c
b100010011 <
b100010011 P
b100010011 ^
b100010011 `
b11 a
b10000 6
b1100 ;
b1100 @
b1100 8
b1100 b
b1100 d
1"
b10 k
#160000
0"
#170000
b11 D
b11 g
b10100 7
b10100 c
b110010011 <
b110010011 P
b110010011 ^
b110010011 `
b100 a
b10100 6
b10000 ;
b10000 @
b10000 8
b10000 b
b10000 d
1"
b11 k
#180000
0"
#190000
b1000 )
b1000 h
b1000 0
0,
b1000 &
b1000 B
b1000 L
b1000 U
b1000 J
bx (
bx W
bx 1
bx i
b1000 .
b1000 I
b101 D
b101 g
b1000 E
b1000 f
b1000 >
b1000 _
b11000 7
b11000 c
b100000000000001010010011 <
b100000000000001010010011 P
b100000000000001010010011 ^
b100000000000001010010011 `
b101 a
b11000 6
b11100 ;
b11100 @
b10100 8
b10100 b
b10100 d
1"
b100 k
#200000
0"
#210000
b1 )
b1 h
b1 0
1G
b1 &
b1 B
b1 L
b1 U
b1 J
bx011 C
bx011 K
bx011 Q
b10000011 (
b10000011 W
b10000011 1
b10000011 i
b10000011 '
b10000011 H
b10000011 2
b10000011 j
b1 .
b1 I
b111 O
b100 D
b100 g
b1 E
b1 f
b1 F
b1 e
b1 >
b1 _
b11100 7
b11100 c
b100001111001000010011 <
b100001111001000010011 P
b100001111001000010011 ^
b100001111001000010011 `
b110 a
b11100 6
b11001 ;
b11001 @
b11000 8
b11000 b
b11000 d
1"
b101 k
#220000
0"
#230000
bx )
bx h
bx 0
b0 J
bx1x10 C
bx1x10 K
bx1x10 Q
bx /
bx T
0A
b10 =
b10 R
b10 ]
0*
0-
b0 (
b0 W
b0 1
b0 i
b1 '
b1 H
b1 2
b1 j
b0 .
b0 I
b0 O
b1100011 M
b1000 D
b1000 g
b0 E
b0 f
b100 F
b100 e
b1000 >
b1000 _
b100000 7
b100000 c
b100000010001100011 <
b100000010001100011 P
b100000010001100011 ^
b100000010001100011 `
b111 a
b100000 6
b100100 ;
b100100 @
b11100 8
b11100 b
b11100 d
1"
b110 k
#240000
0"
#250000
b1 )
b1 h
b1 0
b1 J
0,
1G
b1 .
b1 I
b1 &
b1 B
b1 L
b1 U
bx0x10 C
bx0x10 K
bx0x10 Q
b1 /
b1 T
1A
b0 =
b0 R
b0 ]
1*
1-
b10000011 (
b10000011 W
b10000011 1
b10000011 i
b0 '
b0 H
b0 2
b0 j
b10011 M
b10 D
b10 g
b1 E
b1 f
b10 F
b10 e
b1 >
b1 _
b100100 7
b100100 c
b100010000000100010011 <
b100010000000100010011 P
b100010000000100010011 ^
b100010000000100010011 `
b1000 a
b100100 6
b100001 ;
b100001 @
b100000 8
b100000 b
b100000 d
1"
b111 k
#260000
0"
#270000
b1000001 )
b1000001 h
b1000001 0
b1000001 &
b1000001 B
b1000001 L
b1000001 U
b1xx00 C
b1xx00 K
b1xx00 Q
b10000011 '
b10000011 H
b10000011 2
b10000011 j
b101 O
b1 D
b1 g
b1 F
b1 e
b101000 7
b101000 c
b100001101000010010011 <
b100001101000010010011 P
b100001101000010010011 ^
b100001101000010010011 `
b1001 a
b101000 6
b100101 ;
b100101 @
b100100 8
b100100 b
b100100 d
1"
b1000 k
#280000
0"
#290000
b1 )
b1 h
b1 0
b1 &
b1 B
b1 L
b1 U
bx0x10 C
bx0x10 K
bx0x10 Q
b0 '
b0 H
b0 2
b0 j
b1000001 (
b1000001 W
b1000001 1
b1000001 i
b0 O
b11 D
b11 g
b11 F
b11 e
b101100 7
b101100 c
b100011000000110010011 <
b100011000000110010011 P
b100011000000110010011 ^
b100011000000110010011 `
b1010 a
b101100 6
b101001 ;
b101001 @
b101000 8
b101000 b
b101000 d
1"
b1001 k
#300000
0"
#310000
19
1G
bx )
bx h
bx 0
b1000 J
b11111111111111111111111111111001 &
b11111111111111111111111111111001 B
b11111111111111111111111111111001 L
b11111111111111111111111111111001 U
bx1x10 C
bx1x10 K
bx1x10 Q
bx /
bx T
0A
b10 =
b10 R
b10 ]
0*
0-
b1000 (
b1000 W
b1000 1
b1000 i
b1000 .
b1000 I
b1 '
b1 H
b1 2
b1 j
b1100011 M
b1000 D
b1000 g
b101 E
b101 f
b1000 >
b1000 _
b110000 7
b110000 c
b10100011000010001100011 <
b10100011000010001100011 P
b10100011000010001100011 ^
b10100011000010001100011 `
b1011 a
b110000 6
b110100 ;
b110100 @
b101100 8
b101100 b
b101100 d
1"
b1010 k
#320000
0"
#330000
xX
b110100 )
b110100 h
b110100 0
bx J
x,
x9
xG
b11000 4
bx .
bx I
bx &
bx B
bx L
bx U
bx C
bx K
bx Q
b1 5
b1 S
b11 /
b11 T
b100 =
b100 R
b100 ]
1*
1-
bx (
bx W
bx 1
bx i
bx '
bx H
bx 2
bx j
b1111111 N
b111 O
b1101111 M
b0 D
b0 g
b1001 E
b1001 f
b11111 F
b11111 e
b11111111111111111111111111101000 >
b11111111111111111111111111101000 _
b11000 7
b11000 c
b11111110100111111111000001101111 <
b11111110100111111111000001101111 P
b11111110100111111111000001101111 ^
b11111110100111111111000001101111 `
b1100 a
b110100 6
b11000 ;
b11000 @
b110000 8
b110000 b
b110000 d
1"
b1011 k
#340000
0"
#350000
0,
1G
0X
b1 J
09
b1 .
b1 I
b1 &
b1 B
b1 L
b1 U
b1 )
b1 h
b1 0
b11100 7
b11100 c
bx011 C
bx011 K
bx011 Q
b0 5
b0 S
b1 /
b1 T
1A
b0 =
b0 R
b0 ]
b1000001 (
b1000001 W
b1000001 1
b1000001 i
b1000001 '
b1000001 H
b1000001 2
b1000001 j
b0 N
b10011 M
b100 D
b100 g
b1 E
b1 f
b1 F
b1 e
b1 >
b1 _
bx 4
b100001111001000010011 <
b100001111001000010011 P
b100001111001000010011 ^
b100001111001000010011 `
b110 a
b11100 6
b11001 ;
b11001 @
b11000 8
b11000 b
b11000 d
1"
b1100 k
#360000
0"
#370000
bx )
bx h
bx 0
b0 J
bx1x10 C
bx1x10 K
bx1x10 Q
bx /
bx T
0A
b10 =
b10 R
b10 ]
0*
0-
b0 (
b0 W
b0 1
b0 i
b1 '
b1 H
b1 2
b1 j
b0 .
b0 I
b0 O
b1100011 M
b1000 D
b1000 g
b0 E
b0 f
b100 F
b100 e
b1000 >
b1000 _
b100000 7
b100000 c
b100000010001100011 <
b100000010001100011 P
b100000010001100011 ^
b100000010001100011 `
b111 a
b100000 6
b100100 ;
b100100 @
b11100 8
b11100 b
b11100 d
1"
b1101 k
#380000
0"
#390000
0G
b10 )
b10 h
b10 0
b1 J
b10 &
b10 B
b10 L
b10 U
b1 .
b1 I
bx0x10 C
bx0x10 K
bx0x10 Q
b1 /
b1 T
1A
b0 =
b0 R
b0 ]
1*
1-
b1000001 (
b1000001 W
b1000001 1
b1000001 i
b10011 M
b10 D
b10 g
b1 E
b1 f
b10 F
b10 e
b1 >
b1 _
b100100 7
b100100 c
b100010000000100010011 <
b100010000000100010011 P
b100010000000100010011 ^
b100010000000100010011 `
b1000 a
b100100 6
b100001 ;
b100001 @
b100000 8
b100000 b
b100000 d
1"
b1110 k
#400000
0"
#410000
b100000 )
b100000 h
b100000 0
b100000 &
b100000 B
b100000 L
b100000 U
b1xx00 C
b1xx00 K
b1xx00 Q
b1000001 '
b1000001 H
b1000001 2
b1000001 j
b101 O
b1 D
b1 g
b1 F
b1 e
b101000 7
b101000 c
b100001101000010010011 <
b100001101000010010011 P
b100001101000010010011 ^
b100001101000010010011 `
b1001 a
b101000 6
b100101 ;
b100101 @
b100100 8
b100100 b
b100100 d
1"
b1111 k
#420000
0"
#430000
b10 )
b10 h
b10 0
b10 &
b10 B
b10 L
b10 U
bx0x10 C
bx0x10 K
bx0x10 Q
b1 '
b1 H
b1 2
b1 j
b100000 (
b100000 W
b100000 1
b100000 i
b0 O
b11 D
b11 g
b11 F
b11 e
b101100 7
b101100 c
b100011000000110010011 <
b100011000000110010011 P
b100011000000110010011 ^
b100011000000110010011 `
b1010 a
b101100 6
b101001 ;
b101001 @
b101000 8
b101000 b
b101000 d
1"
b10000 k
#440000
0"
#450000
19
0G
bx )
bx h
bx 0
b1000 J
b11111111111111111111111111111010 &
b11111111111111111111111111111010 B
b11111111111111111111111111111010 L
b11111111111111111111111111111010 U
bx1x10 C
bx1x10 K
bx1x10 Q
bx /
bx T
0A
b10 =
b10 R
b10 ]
0*
0-
b1000 (
b1000 W
b1000 1
b1000 i
b1000 .
b1000 I
b10 '
b10 H
b10 2
b10 j
b1100011 M
b1000 D
b1000 g
b101 E
b101 f
b1000 >
b1000 _
b110000 7
b110000 c
b10100011000010001100011 <
b10100011000010001100011 P
b10100011000010001100011 ^
b10100011000010001100011 `
b1011 a
b110000 6
b110100 ;
b110100 @
b101100 8
b101100 b
b101100 d
1"
b10001 k
#460000
0"
#470000
xX
b110100 )
b110100 h
b110100 0
xG
bx J
x,
x9
b11000 4
bx .
bx I
bx &
bx B
bx L
bx U
bx C
bx K
bx Q
b1 5
b1 S
b11 /
b11 T
b100 =
b100 R
b100 ]
1*
1-
bx (
bx W
bx 1
bx i
bx '
bx H
bx 2
bx j
b1111111 N
b111 O
b1101111 M
b0 D
b0 g
b1001 E
b1001 f
b11111 F
b11111 e
b11111111111111111111111111101000 >
b11111111111111111111111111101000 _
b11000 7
b11000 c
b11111110100111111111000001101111 <
b11111110100111111111000001101111 P
b11111110100111111111000001101111 ^
b11111110100111111111000001101111 `
b1100 a
b110100 6
b11000 ;
b11000 @
b110000 8
b110000 b
b110000 d
1"
b10010 k
#480000
0"
#490000
1,
0X
b1 J
09
0G
b1 .
b1 I
b0 &
b0 B
b0 L
b0 U
b0 )
b0 h
b0 0
b11100 7
b11100 c
bx011 C
bx011 K
bx011 Q
b0 5
b0 S
b1 /
b1 T
1A
b0 =
b0 R
b0 ]
b100000 (
b100000 W
b100000 1
b100000 i
b100000 '
b100000 H
b100000 2
b100000 j
b0 N
b10011 M
b100 D
b100 g
b1 E
b1 f
b1 F
b1 e
b1 >
b1 _
bx 4
b100001111001000010011 <
b100001111001000010011 P
b100001111001000010011 ^
b100001111001000010011 `
b110 a
b11100 6
b11001 ;
b11001 @
b11000 8
b11000 b
b11000 d
1"
b10011 k
#500000
0"
#510000
b100100 4
bx )
bx h
bx 0
b0 J
b1 5
b1 S
bx1x10 C
bx1x10 K
bx1x10 Q
bx /
bx T
0A
b10 =
b10 R
b10 ]
0*
0-
b0 (
b0 W
b0 1
b0 i
b0 '
b0 H
b0 2
b0 j
b0 .
b0 I
b0 O
b1100011 M
b1000 D
b1000 g
b0 E
b0 f
b100 F
b100 e
b1000 >
b1000 _
b100100 7
b100100 c
b100000010001100011 <
b100000010001100011 P
b100000010001100011 ^
b100000010001100011 `
b111 a
b100000 6
b100100 ;
b100100 @
b11100 8
b11100 b
b11100 d
1"
b10100 k
#520000
0"
#530000
b1 J
b10000 )
b10000 h
b10000 0
0,
b1 .
b1 I
b10000 &
b10000 B
b10000 L
b10000 U
b101000 7
b101000 c
b1xx00 C
b1xx00 K
b1xx00 Q
b0 5
b0 S
b1 /
b1 T
1A
b0 =
b0 R
b0 ]
1*
1-
b100000 (
b100000 W
b100000 1
b100000 i
b100000 '
b100000 H
b100000 2
b100000 j
b101 O
b10011 M
b1 D
b1 g
b1 E
b1 f
b1 F
b1 e
b1 >
b1 _
bx 4
b100001101000010010011 <
b100001101000010010011 P
b100001101000010010011 ^
b100001101000010010011 `
b1001 a
b101000 6
b100101 ;
b100101 @
b100100 8
b100100 b
b100100 d
1"
b10101 k
#540000
0"
#550000
b11 )
b11 h
b11 0
1G
b11 &
b11 B
b11 L
b11 U
bx0x10 C
bx0x10 K
bx0x10 Q
b10 '
b10 H
b10 2
b10 j
b10000 (
b10000 W
b10000 1
b10000 i
b0 O
b11 D
b11 g
b11 F
b11 e
b101100 7
b101100 c
b100011000000110010011 <
b100011000000110010011 P
b100011000000110010011 ^
b100011000000110010011 `
b1010 a
b101100 6
b101001 ;
b101001 @
b101000 8
b101000 b
b101000 d
1"
b10110 k
#560000
0"
#570000
19
1G
bx )
bx h
bx 0
b1000 J
b11111111111111111111111111111011 &
b11111111111111111111111111111011 B
b11111111111111111111111111111011 L
b11111111111111111111111111111011 U
bx1x10 C
bx1x10 K
bx1x10 Q
bx /
bx T
0A
b10 =
b10 R
b10 ]
0*
0-
b1000 (
b1000 W
b1000 1
b1000 i
b1000 .
b1000 I
b11 '
b11 H
b11 2
b11 j
b1100011 M
b1000 D
b1000 g
b101 E
b101 f
b1000 >
b1000 _
b110000 7
b110000 c
b10100011000010001100011 <
b10100011000010001100011 P
b10100011000010001100011 ^
b10100011000010001100011 `
b1011 a
b110000 6
b110100 ;
b110100 @
b101100 8
b101100 b
b101100 d
1"
b10111 k
#580000
0"
#590000
xX
b110100 )
b110100 h
b110100 0
bx J
x,
x9
xG
b11000 4
bx .
bx I
bx &
bx B
bx L
bx U
bx C
bx K
bx Q
b1 5
b1 S
b11 /
b11 T
b100 =
b100 R
b100 ]
1*
1-
bx (
bx W
bx 1
bx i
bx '
bx H
bx 2
bx j
b1111111 N
b111 O
b1101111 M
b0 D
b0 g
b1001 E
b1001 f
b11111 F
b11111 e
b11111111111111111111111111101000 >
b11111111111111111111111111101000 _
b11000 7
b11000 c
b11111110100111111111000001101111 <
b11111110100111111111000001101111 P
b11111110100111111111000001101111 ^
b11111110100111111111000001101111 `
b1100 a
b110100 6
b11000 ;
b11000 @
b110000 8
b110000 b
b110000 d
1"
b11000 k
#600000
0"
#610000
1,
0X
b1 J
09
0G
b1 .
b1 I
b0 &
b0 B
b0 L
b0 U
b0 )
b0 h
b0 0
b11100 7
b11100 c
bx011 C
bx011 K
bx011 Q
b0 5
b0 S
b1 /
b1 T
1A
b0 =
b0 R
b0 ]
b10000 (
b10000 W
b10000 1
b10000 i
b10000 '
b10000 H
b10000 2
b10000 j
b0 N
b10011 M
b100 D
b100 g
b1 E
b1 f
b1 F
b1 e
b1 >
b1 _
bx 4
b100001111001000010011 <
b100001111001000010011 P
b100001111001000010011 ^
b100001111001000010011 `
b110 a
b11100 6
b11001 ;
b11001 @
b11000 8
b11000 b
b11000 d
1"
b11001 k
#620000
0"
#630000
b100100 4
bx )
bx h
bx 0
b0 J
b1 5
b1 S
bx1x10 C
bx1x10 K
bx1x10 Q
bx /
bx T
0A
b10 =
b10 R
b10 ]
0*
0-
b0 (
b0 W
b0 1
b0 i
b0 '
b0 H
b0 2
b0 j
b0 .
b0 I
b0 O
b1100011 M
b1000 D
b1000 g
b0 E
b0 f
b100 F
b100 e
b1000 >
b1000 _
b100100 7
b100100 c
b100000010001100011 <
b100000010001100011 P
b100000010001100011 ^
b100000010001100011 `
b111 a
b100000 6
b100100 ;
b100100 @
b11100 8
b11100 b
b11100 d
1"
b11010 k
#640000
0"
#650000
b1 J
b1000 )
b1000 h
b1000 0
0,
b1 .
b1 I
b1000 &
b1000 B
b1000 L
b1000 U
b101000 7
b101000 c
b1xx00 C
b1xx00 K
b1xx00 Q
b0 5
b0 S
b1 /
b1 T
1A
b0 =
b0 R
b0 ]
1*
1-
b10000 (
b10000 W
b10000 1
b10000 i
b10000 '
b10000 H
b10000 2
b10000 j
b101 O
b10011 M
b1 D
b1 g
b1 E
b1 f
b1 F
b1 e
b1 >
b1 _
bx 4
b100001101000010010011 <
b100001101000010010011 P
b100001101000010010011 ^
b100001101000010010011 `
b1001 a
b101000 6
b100101 ;
b100101 @
b100100 8
b100100 b
b100100 d
1"
b11011 k
#660000
0"
#670000
b100 )
b100 h
b100 0
b100 &
b100 B
b100 L
b100 U
bx0x10 C
bx0x10 K
bx0x10 Q
b11 '
b11 H
b11 2
b11 j
b1000 (
b1000 W
b1000 1
b1000 i
b0 O
b11 D
b11 g
b11 F
b11 e
b101100 7
b101100 c
b100011000000110010011 <
b100011000000110010011 P
b100011000000110010011 ^
b100011000000110010011 `
b1010 a
b101100 6
b101001 ;
b101001 @
b101000 8
b101000 b
b101000 d
1"
b11100 k
#680000
0"
#690000
19
0G
bx )
bx h
bx 0
b1000 J
b11111111111111111111111111111100 &
b11111111111111111111111111111100 B
b11111111111111111111111111111100 L
b11111111111111111111111111111100 U
bx1x10 C
bx1x10 K
bx1x10 Q
bx /
bx T
0A
b10 =
b10 R
b10 ]
0*
0-
b1000 .
b1000 I
b100 '
b100 H
b100 2
b100 j
b1100011 M
b1000 D
b1000 g
b101 E
b101 f
b1000 >
b1000 _
b110000 7
b110000 c
b10100011000010001100011 <
b10100011000010001100011 P
b10100011000010001100011 ^
b10100011000010001100011 `
b1011 a
b110000 6
b110100 ;
b110100 @
b101100 8
b101100 b
b101100 d
1"
b11101 k
#700000
0"
#710000
xX
b110100 )
b110100 h
b110100 0
xG
bx J
x,
x9
b11000 4
bx .
bx I
bx &
bx B
bx L
bx U
bx C
bx K
bx Q
b1 5
b1 S
b11 /
b11 T
b100 =
b100 R
b100 ]
1*
1-
bx (
bx W
bx 1
bx i
bx '
bx H
bx 2
bx j
b1111111 N
b111 O
b1101111 M
b0 D
b0 g
b1001 E
b1001 f
b11111 F
b11111 e
b11111111111111111111111111101000 >
b11111111111111111111111111101000 _
b11000 7
b11000 c
b11111110100111111111000001101111 <
b11111110100111111111000001101111 P
b11111110100111111111000001101111 ^
b11111110100111111111000001101111 `
b1100 a
b110100 6
b11000 ;
b11000 @
b110000 8
b110000 b
b110000 d
1"
b11110 k
#720000
0"
#730000
1,
0X
b1 J
09
0G
b1 .
b1 I
b0 &
b0 B
b0 L
b0 U
b0 )
b0 h
b0 0
b11100 7
b11100 c
bx011 C
bx011 K
bx011 Q
b0 5
b0 S
b1 /
b1 T
1A
b0 =
b0 R
b0 ]
b1000 (
b1000 W
b1000 1
b1000 i
b1000 '
b1000 H
b1000 2
b1000 j
b0 N
b10011 M
b100 D
b100 g
b1 E
b1 f
b1 F
b1 e
b1 >
b1 _
bx 4
b100001111001000010011 <
b100001111001000010011 P
b100001111001000010011 ^
b100001111001000010011 `
b110 a
b11100 6
b11001 ;
b11001 @
b11000 8
b11000 b
b11000 d
1"
b11111 k
#740000
0"
#750000
b100100 4
bx )
bx h
bx 0
b0 J
b1 5
b1 S
bx1x10 C
bx1x10 K
bx1x10 Q
bx /
bx T
0A
b10 =
b10 R
b10 ]
0*
0-
b0 (
b0 W
b0 1
b0 i
b0 '
b0 H
b0 2
b0 j
b0 .
b0 I
b0 O
b1100011 M
b1000 D
b1000 g
b0 E
b0 f
b100 F
b100 e
b1000 >
b1000 _
b100100 7
b100100 c
b100000010001100011 <
b100000010001100011 P
b100000010001100011 ^
b100000010001100011 `
b111 a
b100000 6
b100100 ;
b100100 @
b11100 8
b11100 b
b11100 d
1"
b100000 k
#760000
0"
#770000
b1 J
b100 )
b100 h
b100 0
0,
b1 .
b1 I
b100 &
b100 B
b100 L
b100 U
b101000 7
b101000 c
b1xx00 C
b1xx00 K
b1xx00 Q
b0 5
b0 S
b1 /
b1 T
1A
b0 =
b0 R
b0 ]
1*
1-
b1000 (
b1000 W
b1000 1
b1000 i
b1000 '
b1000 H
b1000 2
b1000 j
b101 O
b10011 M
b1 D
b1 g
b1 E
b1 f
b1 F
b1 e
b1 >
b1 _
bx 4
b100001101000010010011 <
b100001101000010010011 P
b100001101000010010011 ^
b100001101000010010011 `
b1001 a
b101000 6
b100101 ;
b100101 @
b100100 8
b100100 b
b100100 d
1"
b100001 k
#780000
0"
#790000
b101 )
b101 h
b101 0
1G
b101 &
b101 B
b101 L
b101 U
bx0x10 C
bx0x10 K
bx0x10 Q
b100 '
b100 H
b100 2
b100 j
b100 (
b100 W
b100 1
b100 i
b0 O
b11 D
b11 g
b11 F
b11 e
b101100 7
b101100 c
b100011000000110010011 <
b100011000000110010011 P
b100011000000110010011 ^
b100011000000110010011 `
b1010 a
b101100 6
b101001 ;
b101001 @
b101000 8
b101000 b
b101000 d
1"
b100010 k
#800000
0"
#810000
bx 4
19
b0 5
b0 S
0,
1G
bx )
bx h
bx 0
b1000 J
b11111111111111111111111111111101 &
b11111111111111111111111111111101 B
b11111111111111111111111111111101 L
b11111111111111111111111111111101 U
bx1x10 C
bx1x10 K
bx1x10 Q
bx /
bx T
0A
b10 =
b10 R
b10 ]
0*
0-
b1000 (
b1000 W
b1000 1
b1000 i
b1000 .
b1000 I
b101 '
b101 H
b101 2
b101 j
b1100011 M
b1000 D
b1000 g
b101 E
b101 f
b1000 >
b1000 _
b110000 7
b110000 c
b10100011000010001100011 <
b10100011000010001100011 P
b10100011000010001100011 ^
b10100011000010001100011 `
b1011 a
b110000 6
b110100 ;
b110100 @
b101100 8
b101100 b
b101100 d
1"
b100011 k
#820000
0"
#830000
xX
b110100 )
b110100 h
b110100 0
bx J
x,
x9
xG
b11000 4
bx .
bx I
bx &
bx B
bx L
bx U
bx C
bx K
bx Q
b1 5
b1 S
b11 /
b11 T
b100 =
b100 R
b100 ]
1*
1-
bx (
bx W
bx 1
bx i
bx '
bx H
bx 2
bx j
b1111111 N
b111 O
b1101111 M
b0 D
b0 g
b1001 E
b1001 f
b11111 F
b11111 e
b11111111111111111111111111101000 >
b11111111111111111111111111101000 _
b11000 7
b11000 c
b11111110100111111111000001101111 <
b11111110100111111111000001101111 P
b11111110100111111111000001101111 ^
b11111110100111111111000001101111 `
b1100 a
b110100 6
b11000 ;
b11000 @
b110000 8
b110000 b
b110000 d
1"
b100100 k
#840000
0"
#850000
1,
0X
b1 J
09
0G
b1 .
b1 I
b0 &
b0 B
b0 L
b0 U
b0 )
b0 h
b0 0
b11100 7
b11100 c
bx011 C
bx011 K
bx011 Q
b0 5
b0 S
b1 /
b1 T
1A
b0 =
b0 R
b0 ]
b100 (
b100 W
b100 1
b100 i
b100 '
b100 H
b100 2
b100 j
b0 N
b10011 M
b100 D
b100 g
b1 E
b1 f
b1 F
b1 e
b1 >
b1 _
bx 4
b100001111001000010011 <
b100001111001000010011 P
b100001111001000010011 ^
b100001111001000010011 `
b110 a
b11100 6
b11001 ;
b11001 @
b11000 8
b11000 b
b11000 d
1"
b100101 k
#860000
0"
#870000
b100100 4
bx )
bx h
bx 0
b0 J
b1 5
b1 S
bx1x10 C
bx1x10 K
bx1x10 Q
bx /
bx T
0A
b10 =
b10 R
b10 ]
0*
0-
b0 (
b0 W
b0 1
b0 i
b0 '
b0 H
b0 2
b0 j
b0 .
b0 I
b0 O
b1100011 M
b1000 D
b1000 g
b0 E
b0 f
b100 F
b100 e
b1000 >
b1000 _
b100100 7
b100100 c
b100000010001100011 <
b100000010001100011 P
b100000010001100011 ^
b100000010001100011 `
b111 a
b100000 6
b100100 ;
b100100 @
b11100 8
b11100 b
b11100 d
1"
b100110 k
#880000
0"
